<svg width="66" height="64" viewBox="0 0 66 64" fill="none" xmlns="http://www.w3.org/2000/svg">
<path d="M32.9757 55.9999C46.3071 55.9999 57.1144 45.2548 57.1144 32C57.1144 18.7452 46.3071 8.00012 32.9757 8.00012C19.6442 8.00012 8.83691 18.7452 8.83691 32C8.83691 45.2548 19.6442 55.9999 32.9757 55.9999Z" stroke="white" stroke-width="2" stroke-miterlimit="10"/>
<path d="M31.4522 40.4853L22.918 32L31.4522 23.5148" stroke="white" stroke-width="2" stroke-linecap="round" stroke-linejoin="round"/>
<path d="M22.918 32.0001H43.0336" stroke="white" stroke-width="2" stroke-linecap="round" stroke-linejoin="round"/>
</svg>
